{
    "python.pythonPath": "venv/bin/python",
    "vsdocker.imageUser": "docker.io/gerhardlr",
    "python.testing.unittestEnabled": false,
    "python.testing.nosetestsEnabled": false,
    "python.testing.pytestEnabled": true,
    "python.linting.flake8Enabled": true,
    "python.linting.enabled": true,
    "python.envFile": "${workspaceFolder}/.vscode/.env",
    "terminal.integrated.shell.linux": "/bin/bash",
    "terminal.integrated.automationShell.linux": "/bin/bash",
}